QUX - Surveys
…
Rows: 347 Columns: 26
── Column specification ────────────────────────────────────────────────────────
Delimiter: ","
chr  (18): stimulus, response, task, trial_type, internal_node_id, source_co...
dbl   (7): rt, trial_index, time_elapsed, run_id, condition, trial, time
dttm  (1): recorded_at

ℹ Use `spec()` to retrieve the full column specification for this data.
ℹ Specify the column types or set `show_col_types = FALSE` to quiet this message.

data

# A tibble: 347 × 26
       rt stimulus            response task  trial_type trial_index time_elapsed
    <dbl> <chr>               <chr>    <chr> <chr>            <dbl>        <dbl>
 1   4096 "Welcome!\n  <p> Y… "0"      inst… html-butt…           0         4102
 2  36211  <NA>               "{\"P0_… nps   survey               1        40380
 3 235539  <NA>               "{\"1\"… sus   survey-li…           2       275918
 4   9996  <NA>               "{\"P0_… seq   survey               3       285929
 5  37311  <NA>               "{\"P0_… ueq_… survey               4       323277
 6  28540  <NA>               "{\"fru… umux  survey-li…           5       351820
 7   6520 "FIN!\n  <p> Thank… "0"      inst… html-butt…           6       358345
 8   5124 "Welcome!\n  <p> Y… "0"      inst… html-butt…           0         5131
 9     NA  <NA>                <NA>    nps   survey               1        19667
10     NA  <NA>                <NA>    nps   survey               1        19669
# ℹ 337 more rows
# ℹ 19 more variables: internal_node_id <chr>, run_id <dbl>, condition <dbl>,
#   recorded_at <dttm>, source_code_version <chr>, ip <chr>, user_agent <chr>,
#   device <chr>, browser <chr>, browser_version <chr>, platform <chr>,
#   platform_version <chr>, referer <chr>, accept_language <chr>,
#   accuracy <chr>, question_order <chr>, event <chr>, trial <dbl>, time <dbl>
…
data %>% select(response)

# A tibble: 347 × 1
   response                                                                     
   <chr>                                                                        
 1 "0"                                                                          
 2 "{\"P0_Q0\":3}"                                                              
 3 "{\"1\":3,\"2\":2,\"3\":2,\"4\":3,\"5\":1,\"6\":2,\"7\":3,\"8\":1,\"9\":3,\"…
 4 "{\"P0_Q0\":4}"                                                              
 5 "{\"P0_Q0\":1,\"P0_Q1\":1,\"P0_Q2\":-2,\"P0_Q3\":-1,\"P0_Q4\":-1,\"P0_Q5\":-…
 6 "{\"frustration\":6,\"capabilities\":4,\"time\":4,\"ease\":4}"               
 7 "0"                                                                          
 8 "0"                                                                          
 9  <NA>                                                                        
10  <NA>                                                                        
# ℹ 337 more rows
…
